<?xml version="1.0" encoding="UTF-8" standalone="no"?>
<!-- Created with Inkscape (http://www.inkscape.org/) -->

<svg
   width="700mm"
   height="400mm"
   viewBox="0 0 700 400"
   version="1.1"
   id="svg5"
   inkscape:version="1.2.2 (b0a8486, 2022-12-01)"
   sodipodi:docname="CoiffeParachute.svg"
   xml:space="preserve"
   xmlns:inkscape="http://www.inkscape.org/namespaces/inkscape"
   xmlns:sodipodi="http://sodipodi.sourceforge.net/DTD/sodipodi-0.dtd"
   xmlns="http://www.w3.org/2000/svg"
   xmlns:svg="http://www.w3.org/2000/svg"><sodipodi:namedview
     id="namedview7"
     pagecolor="#ffffff"
     bordercolor="#666666"
     borderopacity="1.0"
     inkscape:showpageshadow="2"
     inkscape:pageopacity="0.0"
     inkscape:pagecheckerboard="0"
     inkscape:deskcolor="#d1d1d1"
     inkscape:document-units="mm"
     showgrid="false"
     inkscape:zoom="0.43094935"
     inkscape:cx="661.33063"
     inkscape:cy="603.31917"
     inkscape:window-width="1920"
     inkscape:window-height="1171"
     inkscape:window-x="0"
     inkscape:window-y="0"
     inkscape:window-maximized="1"
     inkscape:current-layer="layer1" /><defs
     id="defs2" /><g
     inkscape:label="Calque 1"
     inkscape:groupmode="layer"
     id="layer1"><path
       id="circle592"
       style="fill:#ffff00;fill-opacity:0.2;stroke:#ffff00;stroke-width:0.499999;stroke-miterlimit:10;stop-color:#000000"
       d="M 51.363273 12.590963 A 40.5 40.5 0 0 0 10.86342 53.090816 A 40.5 40.5 0 0 0 20.366715 79.12747 L 82.359831 79.12747 A 40.5 40.5 0 0 0 91.863127 53.090816 A 40.5 40.5 0 0 0 51.363273 12.590963 z " /><rect
       style="fill:#ffff00;fill-opacity:0.2;stroke:#ffff00;stroke-width:0.499999;stroke-miterlimit:10;stop-color:#000000"
       id="rect474"
       width="25"
       height="3"
       x="38.857491"
       y="70.996468" /><rect
       style="fill:#ffff00;fill-opacity:0.2;stroke:#ffff00;stroke-width:0.499999;stroke-miterlimit:10;stop-color:#000000"
       id="rect489"
       width="25"
       height="3"
       x="-32.641285"
       y="50.15229"
       transform="rotate(-60)" /><path
       id="rect514"
       style="fill:#ffff00;fill-opacity:0.2;stroke:#ffff00;stroke-width:0.499999;stroke-miterlimit:10;stop-color:#000000"
       d="m 31.223443,104.84075 v 2.99981 h -18.20457 v 104.9998 h 18.20457 v 3.00033 h 25.00002 v -3.00033 h 18.20509 v -104.9998 h -18.20509 v -2.99981 z" /><circle
       style="fill:#ffff00;fill-opacity:0.2;stroke:#ffff00;stroke-width:0.499999;stroke-miterlimit:10;stop-color:#000000"
       id="circle524"
       cx="139.71346"
       cy="53.090748"
       r="40.5" /><rect
       style="fill:#ffff00;fill-opacity:0.2;stroke:#ffff00;stroke-width:0.499999;stroke-miterlimit:10;stop-color:#000000"
       id="rect526"
       width="25"
       height="3"
       x="127.20766"
       y="70.996468" /><rect
       style="fill:#ffff00;fill-opacity:0.2;stroke:#ffff00;stroke-width:0.499999;stroke-miterlimit:10;stop-color:#000000"
       id="rect528"
       width="25"
       height="3"
       x="11.533803"
       y="126.66579"
       transform="rotate(-60)" /><path
       id="rect542"
       style="fill:#ffff00;fill-opacity:0.2;stroke:#ffff00;stroke-width:0.499999;stroke-miterlimit:10;stop-color:#000000"
       d="m 107.6514,104.84075 v 2.99981 H 89.446816 v 104.9998 H 107.6514 v 3.00033 h 25.00002 v -3.00033 h 18.20509 v -104.9998 h -18.20509 v -2.99981 z" /><g
       id="g566"
       transform="translate(-162.6322,-95.23035)"><rect
         style="fill:#ffff00;fill-opacity:0.2;stroke:#ffff00;stroke-width:0.499999;stroke-miterlimit:10;stop-color:#000000"
         id="rect550"
         width="22.4"
         height="12"
         x="271.58383"
         y="249.57094" /><g
         id="g560"
         transform="translate(-0.25,-0.2069397)"><circle
           style="fill:#ffff00;fill-opacity:0.2;stroke:#ffff00;stroke-width:0.499999;stroke-miterlimit:10;stop-color:#000000"
           id="path554"
           cx="297.03384"
           cy="255.77788"
           r="1.25" /><circle
           style="fill:#ffff00;fill-opacity:0.2;stroke:#ffff00;stroke-width:0.499999;stroke-miterlimit:10;stop-color:#000000"
           id="circle556"
           cx="269.03384"
           cy="255.77788"
           r="1.25" /></g></g><circle
       style="fill:#ffff00;fill-opacity:0.2;stroke:#ffff00;stroke-width:0.499999;stroke-miterlimit:10;stop-color:#000000"
       id="path1972"
       cx="51.363285"
       cy="53.090748"
       r="13.085407" /><circle
       style="fill:#ffff00;fill-opacity:0.2;stroke:#ffff00;stroke-width:0.499999;stroke-miterlimit:10;stop-color:#000000"
       id="circle1974"
       cx="139.71346"
       cy="53.090748"
       r="13.085407" /><g
       id="g411"
       transform="translate(-0.2335335,-1.9358112)"><circle
         style="fill:none;fill-opacity:0.2;stroke:#000000;stroke-width:0.499999;stroke-miterlimit:10;stop-color:#000000"
         id="path374"
         cx="68.162086"
         cy="123.81689"
         r="1.5" /><circle
         style="fill:none;fill-opacity:0.2;stroke:#000000;stroke-width:0.499999;stroke-miterlimit:10;stop-color:#000000"
         id="path374-3"
         cx="68.162086"
         cy="200.73618"
         r="1.5" /></g><g
       id="g411-6"
       transform="translate(27.78473,-1.9358112)"><circle
         style="fill:none;fill-opacity:0.2;stroke:#000000;stroke-width:0.499999;stroke-miterlimit:10;stop-color:#000000"
         id="path374-7"
         cx="68.162086"
         cy="123.81689"
         r="1.5" /><circle
         style="fill:none;fill-opacity:0.2;stroke:#000000;stroke-width:0.499999;stroke-miterlimit:10;stop-color:#000000"
         id="path374-3-5"
         cx="68.162086"
         cy="200.73618"
         r="1.5" /></g><g
       id="g562"
       transform="translate(-9.8984305,-123.11066)"><path
         id="rect506"
         style="fill:none;fill-opacity:0.2;stroke:#000000;stroke-width:0.499999;stroke-miterlimit:10;stop-color:#000000"
         d="m 220.13488,228.65168 v 17.08112 75.83724 17.08164 h 17.08165 58.65998 37.17706 c 9.46311,0 17.08165,-7.61853 17.08165,-17.08164 V 245.7328 c 0,-9.46311 -7.61854,-17.08112 -17.08165,-17.08112 h -37.17706 -58.65998 z" /><circle
         style="fill:none;fill-opacity:0.2;stroke:#000000;stroke-width:0.499999;stroke-miterlimit:10;stop-color:#000000"
         id="path558"
         cx="342.09534"
         cy="283.65167"
         r="2" /></g></g></svg>
